{
  "name": "Member",
  "namespace": "Botble\\Member\\",
  "provider": "Botble\\Member\\Providers\\MemberServiceProvider",
  "author": "Botble Technologies",
  "url": "https://botble.com",
  "version": "5.7",
  "description": "Manage member, user register/login"
}
